SKU,Market Price
1310,449
1312,449
4011,264
6611,395
7111,524
7510,578
7610,578
8011,498
8111,498
8510,524
8610,498
9011,1064
9510,1064
10031,620
10041,620
10114,338
10123,545
10155,151
10158,151
10159,222
10161,222
10164,157
10165,173
10166,157
10167,262
10189,105
10190,148
10204,176
10206,80
10207,99
10213,145
10221,182
10330,160
10332,248
10334,226
10336,259
10338,204
10340,252
10342,138
10344,187
10346,268
10348,318
10354,388
10361,329
11100,1150
11200,1503
11311,160
11923,1065
12008,207
12053,582
12077,425
12107,186
12206,459
12350,432
12381,432
12404,582
12711,449
12909,207
14002,385
14057,452
14101,350
14200,487
14682,117
14705,106
15436,951
15603,753
15801,513
18109,409
18123,609
18161,363
18185,500
18246,609
18284,455
18321,513
18345,384
18369,128
18383,128
18406,211
18444,257
20002,769
28830,285
28922,179
29402,437
29910,469
31111,680
31112,680
32111,890
32112,890
32252,819
36111,410
36112,410
38505,179
38506,159
38605,469
38609,705
41960,563
42807,76
42852,82
42869,76
42876,82
65332,234
65356,234
70024,303
70075,385
70080,385
71189,303
71245,195
71474,99
71486,70
71491,190
73100,172
73101,172
73102,227
73103,227
73104,233
73105,233
73112,200
73128,327
73136,266
73137,266
73144,267
73145,267
73146,291
73147,291
73178,240
73179,434
75102,132
75104,186
75105,192
75111,137
75500,227
75501,227
75502,454
75503,454
75550,189
79001,699
89001,749
92603,119
92624,159
92626,249
130207,339
133253,700
137305,240
140916,129
153084,764
160549,292
161027,764
161126,213
161188,213
175006,1298
228704,44
228804,39
228843,551
228904,72
229004,90
229104,82
229204,120
229304,51
229404,28
229504,42
229604,37
229804,82
229904,63
237001,421
237002,421
237003,537
237004,537
246404,181
246504,112
246604,196
299831,158
299842,158
299850,172
299851,172
303366,42
304004,46
371822,178
371891,194
371921,268
372010,60
372522,91
511410,1904
551310,4269
596270,2123
639404,133
640504,572
640804,360
641304,631
641404,692
641504,524
641704,335
642004,67
642104,86
642204,104
642304,109
642404,176
642504,192
642604,239
642704,247
642804,207
650104,152
650204,168
678803,2086
687031,59
690304,202
690404,223
850330,1746
850360,1875
859056,389
859252,699
864022,419
864523,820
870000,389
871000,199
871535,119
871537,126
872635,149
877331,495
877351,495
877931,389
877933,389
877935,389
1110101,59
1110201,59
1110225,290
1120301,59
1120325,212
1135101,68
1320112,39
1330112,94
1410101,16
1420101,16
1420125,112
2110101,20
2111001,19
2112101,20
2113101,20
2140101,18
2140201,22
2150101,18
2150201,19
2170101,18
2170201,18
2170501,20
2175201,42
2175501,23
2175525,116
2180125,145
2210311,4
2761000,289
2762100,289
14881003,829
18231028,420
18321018,290
20521018,930
20721018,975
23174000,299
23175000,249
26622003,465
26622403,465
26654403,229
26655403,199
27417503,39
31115000,979
31188000,369
31517003,299
31518003,439
31730003,199
31806003,329
32598000,389
32829000,299
41615601,269
41625001,279
51127107,1396
55132507,3581
59127007,2611
68621018,3110
71071003,255
71091003,445
71101003,279
71832003,295
71835000,379
109751001,390
110208001,451
111263001,857
111756001,819
115777211,127
115777461,171
115788115,327
170130211,64
330480000,479
337540000,220
338490000,249
339550000,199
349600000,589
374560000,502
419550000,488
454500000,579
684600011,715
685600011,715
2319550000,265
2321440000,670
2546090000,524
2552090000,475
6653821018,490
6790305094,3850
7065000082,135
7065000092,135
7666350009,333
8632700002,85
23105500002,150
3.20E+14,318
7.12E+14,708
7.16E+14,268
2.40E+34,299
012329A,437
012381A,437
039104M,175
039159M,164
039203M,198
039210M,318
039227M,340
039234M,99
039258M,214
039418M,373
039425M,208
039432M,198
039470M,230
039487M,274
039494M,373
039500M,208
039555M,198
039609M,230
039654M,241
039760M,120
039838M,110
039869M,373
100ARG200900,430
100ARG201000,430
100ARG201200,573
100ARI20MTL,539
100MNDIP20MTL,478
100TII30MTL,447
100TRG201000,355
100TRI20MTL,416
10111A,196
10373100C,426
10473100C,426
10512160C,107
10526100C,154
10573103C,286
10576020C,385
10577000C,267
10578000C,213
10579000C,296
10611ANA,299
115240KH1,187
115240KM1,157
115240KN1,187
115778KH1,187
115778KM1,157
115778KN1,187
115788DW5,322
115788SD5,397
121205A,118
12733ACP,332
12738ACP,332
13261B,349
133208P,304
14715X10,329
14800A0,281
15206TCP,203
15207TCP,128
15208TCP,106
15209TCP,74
15213TCP,450
15215TCP,214
15217TCP,106
15222TCP,214
153053P,292
16027A4NDCP,214
16084A4CP,235
16098A4NDCP,214
16346ACP,182
16347ACP,139
1707A580,762
17156W00,483
17157W00,351
177134M,467
177226M,291
177257M,104
18154A0,293
18207A0,805
18227A0,644
18359ACP,472
18361ACP,547
18556WL00,285
18556WR00,285
186679P,76
1885043A,485
19583000+329620,299
19584000+329630,489
19585000+329620,299
19948W00,461
19960W00,362
1B1,303
1B2,403
1BTSS,180
1BTWS,371
1BWS,316
1SHDEXT+SHDINT,385
1SHEXT+SHINT,186
20013S,28
20060C,1210
20070C,1166
20079+09973,929
20080C,1381
20088+13297,1455
20109+13312,622
2125043A,420
2126043A,934
2128043A,1089
2129043A,343
2130043A,390
215009COM,549
2200GT0,483
2215X0,329
22M45D,199
237010C,195
237010S,195
237011C,180
237011S,180
237013S,127
237020C,259
237020S,259
237021C,235
237021S,235
237078C,279
237078S,279
23EN43V,235
246404B,181
24M45VQ,279
2530W00,780
263491B,449
263541B,209
2660X10,417
2661X0,362
27266B,269
27590B,249
27795B,279
27MP55HQ,459
2881T0,285
28LY330C,0
29UM65,599
2B1,303
2B2,402
2BSS,154
2BWS,316
2K1,372
2SHDEXT+SHDINT,385
2SHEXT+SHINT,187
300110-01,599
303128C,41
304128C,40
305001C,65
305002C,78
305003C,74
305004C,214
305005C,165
305006C,132
305101C,48
305102C,37
305103C,47
306128C,65
306129C,81
306132C,79
306133C,109
308128C,48
309128C,23
31947OVL3174118,407
31947REC3174118,407
31967SQU1362018,318
32LF510B,499
32LF550B,459
32LH512D,649
32LH570D,699
32LH604T,749
32LY340C,749
35909+13312,533
37301A4NDCP,235
37303A4NDCP,332
37345TCP,85
37347TCP,160
37350TCP,117
37351TCP,149
3735A0,807
3736A0,493
38679+09973,893
38689+13297,1044
38709+13312,521
38828B,1109
38829B,589
38903B,529
39LN5400,849
39P400M,489
39S500M,649
39S600M,719
3B1,201
3B1B,256
3B2,337
3BTSS,94
3BWS,282
3BWSB,354
3K1,321
3K2,321
3SHDEXT+SHDINT,385
3SHEXT+SHINT,164
3SHEXTB+SHINTB,263
3WWMC,22
4010N,264
401WBW,1299
40D50P,669
40K390PA,899
4174K00,560
4177ACP,53
42LX330C,0
42LY340C,0
4346A0,724
43LF5100,895
43LF5900,1199
43LH541T,1099
43LH570T,1095
43LH600T,1299
43LX310C,1299
43UF680T,1199
43UH610T,1195
43UH652T,1499
45726A4CP,235
48903B,849
49LF5500,1299
49LF6300,1298
49LH541T,1399
49LH570T,1449
49LH600T,1699
49LX310C,1699
49UH610T,1595
49UH652T,1999
49UH770T,2399
50K220PW,999
51001L,816
51001R,816
51111L,748
51111R,748
51121L,680
51121R,680
5112712NPT,3709
5112712NPTNG,5126
5112712NPTPG,5126
51131L,583
51131R,583
5113252NPT,4235
5113252NPTNG,5313
5113252NPTPG,5313
5113253NPT,6599
51605501CB,269
5224ACP,278
5225ACP,278
5233A0,608
5241A4NDCP,289
55EF950T,4995
55EG910T,3999
55EG960T,5499
55LF6300,1899
55LH575T,1999
55LH600T,1999
55UF680T,1797
55UF770FT,2799
55UF770T,2499
55UH652T,1895
55UH770T,2949
55UH950T,3795
56570101S4DB,649
56581001S4B,849
57296XB+329620,460
57297XB+329630,679
57335XB+329620,430
57337XB+329630,617
591270072S,4361
591270073S,5190
59382XB+329630,599
59383XB+329620,350
5962702SNG,5406
5962702SPG,5406
600CHR,128
601WBW,1699
604300W,812
604605W,526
60LF6300,1998
60UF770T,2999
60UF850T,2998
60UH652T,2695
60UH770T,3799
60UH850T,3995
610CHR,81
615270W,488
618335W,1379
622CHR,101
631000C5A,116
631001C4A,116
631002C,116
631003C,145
631010W,395
631030W,395
631117C,197
631118C,232
631119C4A,362
631120C,247
631150C5A,289
631151C3A,264
631226C,34
631710W,516
632250C5A,112
632251C,96
632252C3A,112
632253C4A,90
632255C,90
632256C3A,168
632601W,237
632610W,440
632CHR,129
633315W,388
635115W,487
63930Q05007,1300
63930Q21018,1085
6395043A,421
6398045A,746
639900W,578
639950W,391
6400044A,802
6401045A,601
6404044A,759
6406043A,480
6407043A,480
6410045A,631
648200W,1118
648210W,1118
6490044A,392
6494044A,414
6496044A,414
649715W,524
6500045A,166
651045W,384
6540045A,238
654210W,383
654230W,383
65812Q05013,470
65812Q21018,400
65815Q05013,635
65815Q21018,565
65830Q21018,740
65870Q05013,625
65870Q21018,550
65875Q05013,470
65875Q21018,400
65921Q21018,400
65ARG250900,305
65ARG251000,339
65ARG251200,407
65EF950T,7995
65EG960T,8999
65LX341C,5999
65PSG250900,139
65PSG251200,185
65PSG40,6999
65TII30MTL,416
65UF680T,2998
65UF770T,3999
65UH652T,3495
65UH770T,4899
65UH950T,5295
66001001SCCB,1045
660WCHR,60
661045W,395
661215W,591
661CHR,77
66301001S4CB,1245
66301L,1309
66301R,1309
66400L,1506
66400R,1506
66401L,1506
66401R,1506
664415W,508
66470Q21018,700
664715W,412
66475Q21018,555
665102W,2084
66512Q21018,620
665215W,431
665315W,567
665415W,709
665515W,709
666101W,1618
666102W,1618
669CHR,50
67012Q05013,760
67012Q21018,465
67015Q21018,760
671CHR,37
673CHR,80
678210W,1110
678655W,1139
678800W,1345
683400W,573
683455W,520
683515W,586
687290C,578
687295C,341
687327C,21
6901045A,183
6902045A,245
6905044A,251
6906045A,248
690CHR,70
6BIMNGC15,3999
70UF770T,4999
70UH635T,4495
71406OVL3174118,395
71406REC3174118,395
71606SQU1362018,268
722754NDCP,289
743500W,898
744500W,898
75UH656T,8999
75UH855T,10999
766200W,1193
77969B,325
79UF770T,7795
79UH953T,11999
811010C5A,180
811011C4A,223
811012C4A,487
811015C,165
811018C,178
811019C,212
811020C5A,212
811021C,110
811022C5A,118
811592W,1238
8123A4NDCP,472
8124A4NDCP,461
8125A4CP,526
8126A4CP,504
815280W,616
824705W,724
829610W,539
829620W,539
829710W,639
829720W,639
829810W,849
829820W,849
838805W,657
839100W,488
839205W,537
843605W,2135
857510W,745
857511W,811
857520W,802
857521W,869
861515W,242
864015W,245
864115W,641
864215W,641
865615W,272
865715W,272
865815W,272
865915W,333
867015W,427
867115W,373
86UH955T,15999
871624NF,1418
871624NFJ,1418
871E24NF,1418
871E24PF,1418
871E26NF,1485
872711C3A,70
872713C3A,145
872722C3A,130
872792C,154
872880C5A,172
872881C6A,145
872882C,145
872886C,40
872887C,69
872888C,25
872889C,41
872890C,38
872891C,74
872893C,103
872894C,104
873000MBZ,495
873110W,481
873170W,214
874627NF,1534
874627PF,1534
875E24NF,1418
875E24PF,1418
875E26NF,1485
875E26PF,1485
876627NF,1534
876627PF,1534
876E16NF,1145
8857ACP,53
893315W,265
894015W,297
898115W,389
898215W,399
901000LCH,3004
901900AG,2685
901900SB,2512
901900W,2685
901910W,2738
904010TMB,5605
904040LCH,5609
904065LGCH,7655
90708C6A,116
90709C,120
90710C3A,238
90712C3A,156
90715C6A,210
90716C5A,279
90717C6A,239
90718C,267
90719C,164
90720C,249
90725C,38
90726C,24
90727C,63
90728C,76
90729C,76
90730C,89
90731C,130
90732C,43
90734C,38
90946C4A,390
90947C5A,492
90948C,508
90949C,645
90951C,572
90958C,200
90958C5A,390
90959C4A,416
90965C5A,596
90986C4A,184
90987C5A,176
90988C,170
90989C5A,207
90991C5A,572
90993C5A,572
91010C3A,85
91013C3A,239
91014C3A,387
91051B2A,367
91101C4A,207
91102C4A,228
9123TCP,225
912413W,558
9125TCP,504
932060RCH,2715
932060SGB,2815
932210RCH,447
943010LCH,1984
951515W,596
951525W,596
96120B,172
96120C,164
96121B,263
96121C,249
96122B,114
96122C,109
96124B,112
96124C,108
96125B,74
96125C,72
96126B,92
96126C,87
96127B,253
96127C,241
96128C,126
96130B,394
96130C,394
96144C,269
96147C5A,395
96148C,335
96149C3A,395
96154B,140
96154C,140
96154C5A,129
96172C,318
96193B6A,394
96193C6A,394
96194B5A,413
96194C5A,413
97280ACP,364
97281ACP,396
97450C,109
97451C,144
97452C,39
97453C,62
97456C,50
97457C,63
97458C,122
97902C,300
97905C,137
97906C,110
97907C3A,162
97921C,102
97922C,135
97923C,39
97924C,57
97926C,47
97927C,62
97928C,119
98127ACP,214
98419TCP,149
984251W,834
985100ARW,2682
985100W,1514
98582C5A,311
98583C5A,359
98584C,245
98585C,256
98586C5A,336
98587C,188
98588C,130
98589C,207
98590C,44
98591C,72
98592C,93
98621ACP,321
98623ACP,343
987017W,1387
987031W,756
987900AG,1158
987900SB,1158
987900W,1158
987919AG,959
987919SB,959
987919W,959
987929W,959
98868T4NDCP,418
989200W,925
989236W,778
98930X10,417
990100W,1261
99017SS3A,458
99020SS,197
99021SS,172
99022SS3A,470
99023SS3A,470
99105TECP,407
992542C4A,145
992545C3A,179
A0016,198
A0019,231
A103,132
A105,58
A107,154
A1309,105
A5003C,498
A5008C,538
A5008CWPL,599
A5008V2C,628
A5008V2CWPL,715
A5013C,1088
A5013V3C,1638
A5016,242
A5019,286
A502C,83
A5048C,397
A5048V4C,568
A5048V4CPL,618
A505C,68
A5100C,278
A5100CWPL,474
A5100V2C,338
A5100V2CWPL,534
A5105C,278
A5105CWPL,514
A5105SC,128
A5106C,318
A5106SC,168
A5110C,348
A5111A150C,228
A5111CML,510
A511C,58
A5124CWPL,713
A5130C,478
A5130V2,478
A5142C,298
A5143C,548
A5144C,198
A5144CML,310
A5149C,198
A5149CPL,394
A5151C,99
A5152C,98
A51556C,168
A51559C,188
A51576C,248
A51579C,278
A5159C,195
A5161C,99
A5163C,64
A5173C,258
A517C,48
A529C,46
A6700C,398
A6700LHC,418
A6702V2LHC,438
A6703LHC,478
A6705LHC,418
A6705SC,188
A6706SC,238
A6708LHC,498
A6710AC,198
A6711C,618
A6744C,320
A6748LHC,349
A6748V4LHC,498
A6749C,288
A6749LHC,308
A6751C,115
A6751V2C,133
A6752C,98
A6752V2C,129
A67556C,165
A67559C,185
A67576C,278
A67579C,308
A6759C,189
A6759V2C,198
A6761V2C,115
A6763C,63
A6852C,138
A68553C,138
A68556C,168
A68559C,188
A68576C,278
A68579C,308
A6859C,198
A6861C,198
A6861V2C,118
A6863C,68
A6900C,418
A6902C,398
A6902V2C,428
A6903C,438
A6905C,418
A6906C,458
A6906S25C,238
A6906S32,248
A6908C,458
A6908V2C,488
A6908V3C,488
A6910V2AC,198
A6911A200C,439
A6911AMB,569
A6924V4C,1248
A6924V5C,1248
A6943C,498
A6943V2C,498
A6944C,320
A6948C,327
A6948V4C,489
A6949C,288
A6951C,118
A6952C,138
A69556C,145
A69559C,158
A69579C,262
A6959C,196
A6961C,118
A6963C,35
A6978C,268
A9994,209
AAS9SE3,395
ABF15570E,1745
ABF18083E,1965
ABS3,270
AC130,360
AC1401,385
AC6361S,530
ACD9SG3,719
ACG40RBIN,8990
ACG40RFSN,11490
ACK60,599
AG526CHR,395
AG770CHR,395
AG776CHR,185
AG777CHR,251
AG780CHR,303
AG783CHR,500
AG785CHR,500
AG791CHR,409
AH198170,1499
AH900-161,2499
AH900-191,2999
AL100,253
AL100A,277
ALFC1840,1399
ALFC2840,1999
ALV40BVC,1900
ALV40DG2E,2300
ALV40SGE,1900
AN1295BW,882
AN1295S12JWC,2143
AN1465BW,1068
AN1465S12JWC,2226
AN-CR500,10
AND400400IFNK5,1549
ANDANO400400UK5,1179
AN-MR400,79
AN-MR600,69
AOM6SE2,899
AQ82L29,1199
AQC8BF7T1,1499
AR5S,699
AR8S,899
AR90S,1099
ARH9SIX,749
ARHS60X,599
ARMF125,1099
ARU52X,599
ARV6001,482
ARV750L1,524
ARV750R1,524
ARV900L1,577
ARV900R1,577
AS0016,149
AS0019,171
AS5016,187
AS5019,229
AU6W,1983
AU8W,2117
AVRX3200,1799
AW230-190,3499
B14M42N3AU,1699
B16581639,466
B16L50,1190
B16N50,1190
B16N60,1190
B20L50,1433
B20N50,1433
B2111,108
B262,128
B26L50,1821
B26L60,1821
B26N50,1821
B26N60,1821
B2888,166
B2890,123
B295X14,109
B4063,569
B4288,299
B4369,735
B43699,1068
B45C44N3AU,4299
B45M42N3AU,2999
B6677,97
B6827,78
B7120E,785
B7685,43
B819687,893
BA1510BW,243
BA1510BWF,548
BA1650BW,265
BA1650BWF,570
BAF911EG,2439
BB4W,291
BB5W,303
BB7W,328
BBM14S,1099
BCB33AFAUS,1949
BCC64K,599
BCCT60N,799
BCG95XFFC,1399
BCS4,849
BCT4,999
BD16242,999
BD16350,1599
BDH8500AXY,499
BDVN9200WB,1299
BDVN9200WL,1299
BDW146X,799
BDW45X,949
BE2003001M,1699
BE4003001M,1499
BE5013001M,1999
BFD645X,949
BFD9058WX,3499
BFD915WX,2699
BFG621,1399
BFID346X,899
BG14BM,999
BG4S,749
BGB36BQARL,5999
BGB48BQRL,6499
BH9540TW,1099
BHHILTON1500,1699
BHHY416,2099
BHI650,1289
BHISO1500B,1999
BHISO1860B,2299
BHLIBRA1715,1899
BHS1490,1199
BHY4751500RECT,1525
BHY4751755RECT,1745
BHY4761490OVAL,1525
BHY4761675OVAL,1745
BI630CNS1A,1299
BI630DNS1A,1399
BIC630NS1A,1149
BIC64B,2499
BIC64F,1499
BLV6001,520
BLV750L1,567
BLV750R1,567
BLV900L1,620
BLV900R1,620
BM32CX,649
BM34SX,349
BMOP12,1499
BMP251100,6699
BO451111,8299
BO5M,799
BO7C,999
BOP220111,4999
BOSE610PX,1899
BOSE65XM,849
BOSE65XP,799
BOSE67XP,899
BOSE79X,1999
BOSE99XP,2399
BP250,119
BP350,149
BP450,139
BP5013001M,2999
BP556,209
BP736,249
BP9314001M,4199
BRS60X,409
BRSR60X,539
BRU53X,729
BRU70X,899
BS12340,2299
BS12840,1999
BS12840S,2599
BS19952,1299
BS27300,2999
BS31550,3399
BS31560,3799
BS471-110,9999
BS475110,9999
BS485110,12999
BS5,769
BS7,869
BS79910,5799
BS79950,5125
BS836480AM,5499
BSGH64,1219
BSID346X,899
BSP251100,6999
BT32,149
BT32MB,249
BT32SQ,159
BWC90X,1899
BWC9X,899
BWCE6X,649
BWCE9X,799
BWCG90X,2059
BY9314001M,4999
C270RS,1299
C270RW,1249
C47D22N3GB,3499
C54L60N3GB,1599
C6GMXA8,2590
C77V60N2,4599
C90GMXA,3295
C91GMXAT1,4490
C9CMXA1,4790
C9GMXA1,4490
CA1525BW,433
CA1525BWF,738
CA1675BW,466
CA1675BWF,771
CA1750BW,824
CC64,669
CCPARA4SP2,7289
CCSE3302A36,4468
CD634GBS1,3499
CD6SG1,499
CD9SG1,699
CDG634BS1,2999
CE302CB2,469
CE302CBX1,779
CE302CPX1,319
CE604CBX1,949
CE604CX3,649
CE604DTB1,1199
CE604LBX1,829
CE754DTB1,1399
CE905CBX1,1549
CF6GS,699
CF9BLS,899
CF9GS,1029
CFE532WA,799
CFE535WA,899
CFG503WA,839
CFG515WA,1219
CFM6412,709
CG302DNGGB1,1149
CG302LFX2,399
CG451DNGGB1,1249
CG603DNGGB1,1799
CG604CWCX1,749
CG604DNGGB1,1649
CG604DWFCX1,949
CG604LCX1,599
CG604LWFX2,680
CG604WXFFCP,849
CG604WXFFP,799
CG604WXP,739
CG604XFFP,749
CG604XP,792
CG6BLS,599
CG903DNGGB1,1949
CG905DNGGB1,1849
CG905DWFCX1,1149
CG905DX1,1449
CG905LWFCX2,635
CG905WXFFC,1399
CG9BLS,699
CGG604WFFC,1199
CGG705WFFC,1399
CGG905WFFC,1599
CI263-112,3999
CI302DTB2,1549
CI603DTB2,1949
CI604DTB2,1949
CI754DTB2,2499
CI905DTB2,3199
CIR574XS3,1890
CIR575XS5,1890
CIR597X5,2090
CIR60XS3,1450
CIR66XS3,1290
CIR93AXS3,1990
CIRQUE450,667
CIRQUE900,895
CJK90CSVI9,5499
CK2000,2590
CKS70,699
CL5W,503
CL6272,2404
CL7W,528
CM2460,249
CM3115W,141
CM3306W,123
CM4350P,229
CM4360,299
CM450110,7199
CM4650P,369
CM656NBS1A,3999
CM8350,529
CM8450,779
CM9750,1099
CM9760,1299
CMG633BS1B,2299
CMG656RS1A,3049
CMP250110,6199
CMS6451X,4490
CMSC45,4690
CMSC45NE,4690
CMW624,99
CMX2205034,2839
CMZOOM,3490
CO1520BW,448
CO1670BW,485
CO7W,3990
CP059MDX,3499
CP6BLS,499
CRON901THKL,659
CRON901THKR,659
CS01GM,1295
CS01SS,921
CS60,1399
CS658GRS1B,4499
CSCUZ12RKR,1949
CSCUZ18RKR,2649
CSCUZ24RKR,3249
CSCUZ9RKR,1699
CSG656RS1A,3899
CSW101CHR,296
CT1001,1595
CT1002,1795
CT1003,2595
CT15B2,1790
CT15NE-2,1690
CT636LES1,3999
CTA15X,1790
CTL636ES1,3999
CTPA1015,1690
CU6WFW,2382
CU8970,1199
CVA6401,4899
CVA6431,3899
CX480-100,9999
D000003,999
D100W,1102
D1152500,617
D200B,1409
D2100100,1235
D4050700,920
D5645X0,899
D60XC,750
DA2050,899
DA2270,1699
DA3366,899
DA3496,1699
DA399-6W,1699
DA4196W,2199
DA5996W,1699
DA6296W,3499
DA6596W CANTO,3499
DC14S,699
DC54-202106-01,799
DC54-65027-01,999
DD60DCW7,1849
DD60DCX7,2049
DD60DDFX7,2149
DD60DI7,2099
DD60SCW7,1299
DD60SCX7,1499
DD60SDFTX7,1499
DD60SDFX7,1449
DD60SI7,1399
DD60SLI7,1399
DD60STI7,1399
DD90SDFTX2,2099
DD90STI2,1849
DE302GB,799
DE302HB,899
DE30WGB,799
DE4060M1,399
DE5060G1,599
DE5060M1,559
DE6010MT,1949
DE6038MD,2449
DE605MS,1099
DE608M,1549
DE609MP,2049
DE60COMBI,699
DE60PSC,999
DE60UM,649
DE8060P2,1349
DE908M,2549
DE908MP,4049
DE90UM,749
DEBC145,1499
DEBETA60,849
DEBETA90,999
DECH60S,849
DEDW45S,949
DEDW60S,999
DEDW645S,1049
DEDW645SI,1049
DEDW650S,1199
DEDW654FI,1199
DEF605E,1749
DEF605GW,1449
DEF905E,2649
DEF905GW,2349
DEF909GW,3549
DEFR60S,399
DEGH60,749
DEGH60BG,1249
DEGH60ST,549
DEGH70BG,1449
DEGH90W,1249
DEGH90WF,1149
DEH60S,499
DEIND603,1449
DEIND604,1649
DEIND804,2049
DESIGMA90,1299
DETHALASSA90B,1599
DEWC155D,2799
DEWC166S,2599
DEWC30S,1099
DEWC46D,1599
DEWC54S,1499
DF481160,3499
DF6260MLA,849
DG6200,2599
DGC6800XL CS,7199
DH8060P1,2099
DHI623GAU,349
DHI635KAU,449
DHI755FAU,889
DHI955FAU,1049
DHL535CAU,419
DHL555BAU,839
DI261110,2999
DINAS8S175LBK,319
DINAS8S175RK,319
DISBMC,129
DL8560M,799
DM2740DAB,399
DM4KG,449
DOSCA36X,3490
DP132,49
DPR45,249
DS2DOUBLE,1799
DS3170SP,2908
DSF6106X,839
DSF6306X,1099
DTCH60B,1249
DTCH80B,1549
DUS06,226
DUS07,245
DUS09,263
DUS12,465
DVPSR320,64.95
DW60CDX3,999
DW60CHPX1,1049
DW60CHW1,969
DW60CHX1,999
DW60CRX3,649
DWA314W,1650
DWA4510X,1650
DWA6214S,1390
DWAFI6314,1950
DWAFI6315T,2150
DWAI214X,1690
DWAI6315XT,2150
DWAU6214X,1750
DWAU6315X,1890
DWB091E51A,1949
DWB097E50A,1549
DWB09W850A,889
DWDFD1452,869
DWW06W450A,349
DWW09W450A,569
DWW09W651A,679
DWW09W851A,789
DZ1631,712
E115SX,544
E120BCSS ,2699
E249TRS,1099
E249TRW,939
E28MTKSS,689
E308LWW,1899
E30CMGSX,549
E32AWN-13,2399
E331TRT3,1149
E360WSCS,1899
E373RWH,1449
E381TRT3,1149
E388LWW,1999
E388LXFD,2449
E388RXFD,2449
E402BRX4,1699
E411TRX3,1649
E440TRT3,1449
E442BLXFD5,2099
E442BRE5,1699
E442BRX5,1999
E442BRXFD5,2099
E450RWH,1899
E450RXFD,2099
E521TRT5,1599
E522BLXFD5,2249
E522BRE5,1899
E522BRWFD5,2299
E522BRX5,2199
E522BRXFD5,2249
E522BRXFDU5,2599
E6KDEW,564
E71G-70,629
E900CBGSX,1199
E90BCSS ,2499
EA90SX,309
EABI6600,2699
EAF600WH,184
EAGL700S,449
EAGL90SX,649
EASY200R,1145
EASYEAVE150,154
EASYROOF150M,251.9
EASYROOF150T,284.9
EASYWALL150,154
EB011H,650
EB011HA,760
EB012Q160,740
EB012Q220,770
EB04D2Q,620
EB05QF,520
EB1001,900
EB1002,1274
EB388111,14999
EB60DSXB1,3399
EBC600SX,1299
EBE4307SD-L,2699
EBE4307SD-R,2699
EBEVCOOLC15,2399
EBM14S,799
EBM5100SD-L,2279
EBM5100SD-R,2279
EBSR,435
EC45WSX,1469
EC645HB90A,1199
EC945RB91A,1999
ECBN5066,10063
ECBN6256,15228
EDM15XS,999
EDP2074PDW,959
EDS14INTD,999
EDS14SX,1069
EDV5051,609
EDV600SS ,899
EDV600WH,799
EDV6051,669
EDV60WH,499
EE02,327
EE11,339
EE12,339
EE21,266
EE22,266
EE30U,263
EE50U,284
EE63U,410
EE71,401
EE72,401
EE900GSXS,2899
EFG540G/A,429
EFG750X/A,559
EFL6KWH,599
EFM3001WE-L,2849
EFM900ANT,5399
EFM900CRM ,5399
EFM900SST,5399
EFP6500XA,419
EFP9500XA,539
EG700GFSX,3169
EG900GDSX,2599
EG90GFSX,2599
EGC7USS,769
EGE9TS,1849
EGISM9S,2249
EGMU9SS,949
EGZ60WCTSXS,799
EGZ700FGS,999
EGZ90FCTSXS,1029
EGZ90GSV-BN,769
EGZ90LWFCSX,1264
EH611FK17E,2249
EH675MV17E,3499
EH875KU11E,8999
EHC644BA,1359
EHC647UC,669
EHC917W,529
EHF125S36,850
EHF160S36,1013
EHF250S36,1188
EHF25S24P,456
EHF25S36,450
EHF315S36,1338
EHF400S36,1774
EHF50S24P,481
EHF50S36,475
EHF80S36,738
EHG643BA,1549
EHG645SA,939
EHG953BA,1779
EHI645BA,2199
EHI745BA,2439
EHI935BA,3049
EIN90WSX,1849
EM1501,1095
EM1503,925
EMB2527BA,1009
EMPIVAN6L88F1,437
EMPIVAN7L91F1,548
EMPIVAN9L89F1L,589
EMPIVAN9L89F1R,589
EN600C4,749
EN70C6,1264
EN900C6,1379
EOC617W,789
EOC647S,1059
EOC647S--W,1059
EP500UW,499
EP52UMS,309
EP54UEWH,799
EP54UTW,1224
EP6004SX,799
EP60M8SX,864
EP8060DS,1299
EP845DSX,769
EP845DSX ,699
EP900ISX2,979
EP900MSS,1299
EP90DMSX,2614
EP90SWS,429
EPY60MSS,1099
EPZ2GFFDS,299
EPZ3WGCTS,429
EPZ4EESX,279
EPZ4EEWH ,439
EPZ4GSXV,459
EPZ4GWH,439
EQBH156ASLP,3269
EQBL156ASLP,2959
EQE6207SD,3529
EQE6807SD,3629
ERB,459
ERBU,392
ERC926BA,1289
ERCE9025BA,1059
ERM3701WE-R,2849
ERM4307SD-R,2499
ERS60S,309
ES390S,574
ES600MSX,1129
ES7,969
ES9060DSXS,2699
ESD60RS,269
ESD60RS-CD,269
ESE6107SG,3999
ESF8725ROX,1599
ESG600SX,1574
ESG60GUSX,2099
ESG800GUSX,2599
ESL6002S,179
ESM60SOTSX,1574
ESM60TSX ,1379
ESM75TSX,1399
ESM8060TSX,1599
ESS1SHA12,498
ESS1SHA15,727
ESS1SHA5,340
ESS1SHA7,381
ESS1SHA9,438
ESSENTU2K5,449
ET12XL,1099
ET475MY11P,2499
ET651FF17P,1199
ETL65W,799
ETL9W,849
ETM5200SD-L,2329
ETM5200SD-R,2329
ETP12XL,1499
EU8031A10W,529
EU8031B15W,590
EU8035A25W,1150
EV100.,639
EV48B,339
EV6004WH,799
EVBU,448
EVE614BA,1389
EVE616BA,2029
EVE626BA,2879
EVE678BA,3079
EVE916BA,3499
EVEP614BB,2029
EVEP616BB,2589
EVEP618BB,3799
EW50,799
EWD85KFW,1499
EWF12832,1059
EWF14742,899
EWW12832,1609
EWW14912,2039
EXC627W,1269
EXDU,816
F54EW,1099
F6001,388
F6111,388
F77602MOP,1399
F78601VI1P,1599
F87782MOP,1999
F99705IMOP,2299
FC10MUL01,249
FC15LVB01,379
FC17TUL01,339
FC9PS,2599
FCF142R02W,299
FCF200R02W,399
FCF201R02W,399
FD1000100MESH,409
FD1000X1005SVL,409
FD100L,399
FD100MESH,399
FD100S10,489
FD11XS90I,75
FD11XS90L,55
FD11XS90M,55
FD11XS90T,55
FD1200100MESH,435
FD1200MESH,425
FD120L,425
FD120L10,435
FD800100MESH,299
FD800MESH,279
FD80L,279
FD80L10,299
FD900100MESH,369
FD900MESH,325
FD900X1005SVL,369
FD90L,325
FDT100,399
FDT10010,409
FDT120,425
FDT12010,435
FDT80,279
FDT8010,299
FDT90,325
FDT9010,369
FE800CHR,159
FE802CHR,49
FE803CHR,82
FE804CHR,46
FE811CHR,90
FE812CHR,112
FE892CHR,25
FE893CHR,26
FE894CHR,30
FE895CHR,30
FE896CHR,54
FE897CHR,11
FFD540R02T,1699
FFS5463W,699
FH527IX,999
FH837CIX,1299
FHEE229SC9S2,818
FHEE91A9S2,889
FI14BM,999
FK617X AUS,999
FK737CX AUS,1399
FK898EPXAUS,1799
FLMN541S,900
FLMW40S,1585
FME120,1350
FR360S,899
FR602,175
FR902,499
FS340,690
FS340D,1002
FSF198R02W,699
FSF209R02W,499
FSR055R02W,259
FSR115R02S,299
FSR116R02W,299
FSR269R02W,499
FSR272R02W,599
FT1001,349
FTM240A01W,499
FTM320A01W,599
FTM418A01S,799
FTM419A01W,759
FTM530R02W,999
FTM531R02S,1099
G4220UCS,1599
G6160SCVI,2199
G6365SCVIXXL,2599
G6515SCIXXL,2699
G7FS,869
GB-306NP,1099
GB-310NPL,999
GB-310NWL,799
GB-450UPLE,999
GB-450UPLX,1499
GB450UWLX,1549
GB-450UWLX,1299
GB-W449UPLX,1799
GB-W450UPLX,1849
GC-306NW,899
GCL197HPNL,2299
GC-L197HPNL,1999
GC-L227FNSL,2199
GC-P227FSL,2699
GDS14,725
GE20NU10,109
GE90S,1799
GE9SS,1649
GEH6017,229
GF-5D712SL,3999
GF5D906SL,5999
GF-6D725BGL,5399
GF-B620PL,1995
GFC60,499
GF-D613PL,2999
GF-D613SL,2999
GF-L613PL,2399
GFSD730SL,4349
GF-SD730SL,3299
GG90S,2299
GHR92S,765
GHS607S,499
GN-422FW,1049
GOC64,899
GOC75,1049
GP08LU10,139
GRD257SL,3699
GR-D257SL,3299
GS731CHR,421
GS770CHR,395
GS776CHR,251
GS780CHR,317
GS783CHR,553
GS785CHR,553
GS791CHR,434
GS802CHR,108
GS811CHR,159
GS892CHR,64
GS893CHR,77
GS895CHR,77
GS896CHR,165
GS897CHR,30
GSB679PL,2099
GS-B679PL,1675
GT-223MWL,699
GT-332MPL,1049
GT-442BPL,1099
GT-442BWL,999
GT-515BPL,1279
GT515BWL,1449
GT-515BWL,1169
GTKN1BT,399
GT-W515BPL,1899
GUH52SD,349
H1590S,999
H2260B,1299
H2261B,1999
H2661B,1999
H2661BP,2599
H6260B,2799
H6260BP,3799
H640STXPRO3,529
H6461BP,4799
H6800BM,5499
H6860BP,6999
H6890BP,13999
H950SLTXPRO,815
HAV400SK1,436
HB1001,2054
HB1002,2203
HB634GTS1A,2199
HB673G0S1A,2699
HBA11B150A,789
HBA13B150A,889
HBA13B254A,1299
HBA33B150A,1249
HBF55W,249
HBF80,329
HBG633BS1A,1649
HBG655HS1A,1949
HBG672BS1A,2199
HBG6767S1A,3149
HC60PCIEX3,369
HC652600EB,5499
HC90CGX1,819
HC90DCXB1,1099
HC90PHTX1,699
HC90PLX4,599
HDB850,69.95
HG60FXA,999
HG6600B,299
HG90FXA,1999
HI120MXB1,3599
HK654070XB,1099
HK654200XB,2249
HK673520FB,1799
HK854220XB,2899
HLB98LTIX,1299
HLF4511R,159
HLF4511S,189
HLF6011R,215
HLF6011S,239
HLF8511R,269
HLF8511S,299
HM676G0S1A,3299
HM678G4S1B,4699
HMT84G654A,1099
HN600SMPI,1699
HN678G4S1B,5499
HN6C,397
HN9UM,805
HNF1525,390.6
HNF1525F,669.9
HNF1675,421.05
HNF1675F,700.35
HNFE90WMP,4999
HNFF906WMP/I,3999
HNFI90WMPI,7999
HNME1525SAN10JW,1855.35
HNME1675SAN10JW,2006.55
HP60ICSX2,499
HP60IDCHX2,949
HP90ICSX2,549
HP90IDCHX2,1099
HR676G8S2A,3899
HR6BF121S,399
HR6TFF230S,549
HR945T,499
HRF261FW,599
HRG6767S1A,3499
HRZ113,299
HRZ40,199
HS60CSX3,379
HS60LRX4,339
HS60LXW4,339
HS90X4,449
HSB738356A,3299
HT1005,1777
HT1006,1995
HT1703,6205
HT1704,6722
HT1705,7240
HT1712,7447
HT1715,7447
HT1722,7102
HT1724,7899
HT1764,4859
HT1783,4995
HT1784,4295
HT1784Z3,4495
HT1791,5950
HT1792,5300
HT2783,4995
HTH6550WMXY,799
HTJ7750WXY,1299
HTRTR0402MBL,619
HTRTR0402MHW,619
HTRTR0602MHW,865
HTRTR0701MHW,809
HTRTR1001M,830
HTRTR1001MHW,979
HTRTS0402MBL,655
HTRTS0402MHW,655
HTRTS0602L,935
HTRTS0701MBL,869
HTRTS0701MHW,869
HTRTS1001MHW,1029
HUSC1840HY,1099
HUSC2840HY,1699
HUSCNSIL,699
HVA541NS0,2699
HWMP55-918,449
I4B60,899
I94S,3990
IC1300,399
IC608LCRFG,669
ICC6GE2,619
ICON120K1R,905
ICON120W1R,905
ICON60K1,480
ICON60W1,480
ICON75K1L,620
ICON75K1R,620
ICON75W1L,620
ICON75W1R,620
ICON90K1L,719
ICON90K1R,719
ICON90W1L,719
ICON90W1R,719
ILC604B,899
ILCM45X,2799
ILCS45X,2999
ILFM60CKX,1099
ILFM905TC,2499
ILGP64X,899
ILGP75X,949
ILGP96X,1099
ILO690X,1099
ILO691X,1299
ILO691XP,1799
ILO69TC,1799
ILO759X,1799
ILO990X,2799
INB64B,1099
INF26IN50M,2464
INF26IN60M,2464
INF26L50M,1821
INF26L60M,1821
INF26N50M,1821
INF26N60M,1821
INF26TL50M,2010
INF26TL60M,2010
INF26TN50M,2010
INF26TN60M,2010
INF32N50M,2294
INF32N60M,2294
IRI6SE1,749
IRI6WE3,649
IRI9WE3,749
IS4110SP,3791
IT965GGEI2,3699
IT965PROEI,3399
IV600FBI,1099
IV602BIM,699
IVC4790,1990
IVDFI1,1999
IVDSI2,1399
IVFSCM34X,449
IVFSD60,1399
IVG60,699
IVG80,899
IVSG900,699
IVUM60,699
JV2002C,141
JV2005C,118
JV2011C,112
JV2017C,93
JV2029C,93
K1000W,706
K1001W,706
K1801VI,14999
K181X60,1090
K181X70,1290
K181X90,1390
K24X60 2965,890
K24X90 2966,1050
K24X90 2966--W,1050
K39:2L 3106,1690
K7088D150,6189
K7588ASC,2490
KB20000,547
KBG11034ONYX,949
KBG11034PW,949
KBG11050ONYX,1169
KBG11050PW,1179
KBG120ONYX,1299
KBG160ONYX,1229
KBG160PW,1229
KD55X9000C,3299
KD65X8500C,4499
KDL55W800C,1799
KFN14842SDED,4699
KFNS37452IDE,1299
KGC20BLA,1049
KGC20BNA,1049
KGC20KNA,1049
KGC26BLB,1099
KGC26BNB,1099
KGC26KLA,1099
KGC26KNA,1099
KGCMRCC,179
KGCRB1C,179
KHPE270362D,3387
KHPE340362A,3537
KISRCPSCAU,304
KISSSCPSCAU,874
KIUACPSCAU,240
KLS9GLASSP,3189
KM2312G,1799
KM2334G,1999
KM2354G,2399
KM3014G,1999
KM3034G,2999
KM3054G,3299
KM3621,1199
KM5600,1199
KM6113,1999
KM6208,1999
KM6322,2699
KM6357,3499
KM6381,4399
KM8403101M,2699
KMS10,34.95
KS37422ID,0
KS8404001M,3499
KSARO,94
KSE270F2B,3544
KSE450F3A,4992
KSN27026E2A,5442
KSN27026F2A,4593
KSN34026F2A,4743
KSV25HRF,849
KSV35HRF,1209
KTX620,1059
KWH20HRE,729
KWH26HRE,869
KWT1601VI,13999
KWT6321UG,3999
L0016,110
L103,77
L105,33
L1055,61
L107W,94
L1309,61
L13099,110
L1309L,61
L5016,143
L77480FL,1599
L87480FL,1899
L9994W,165
LAS350B,239
LAS450H,349
LAS550H,469
LAS650M,799
LAS750M,699
LAS855M,999
LAS950M,1299
LB75564AU,1299
LB89584AU,1699
LC98BD542P,3149
LD-1481W4,799
LD1482T4,899
LD1484T4,1399
LE520000,263
LE544CHR,152
LE545CHR,172
LE680CHR,119
LE685CHR,211
LE754CHR,198
LED19C1000,249
LED24D1050DV,1599
LED24D2200,329
LED32C2100DV,429
LED32D2200,399
LED32D2300I,599
LED40D2200,649
LED40D2300I,799
LED43D2200,749
LED49D2200,899
LED49D2300i,999
LED55D2200,999
LED58D2600,1399
LED65D2610,1799
LES37WF,1760
LEV24GD3FHD,419
LEV32GD3HD,529
LEV40GD3FHD,749
LFB5M019X,999
LFB5M019X--A,999
LFF8M122XAUS,1049
LFNE5B,3520
LG100,566
LG100U,566
LG100UX,402
LG100X,450
LG180,944
LG180U,944
LG180UX,690
LG180X,690
LG200,944
LG200U,944
LG200UX,887
LG200X,803
LGS37WF,1980
LHB655W,599
LHB675,749
LHB755W,849
LHSHB590,1080
LHSR,325
LI46630P,1099
LI48932P,1599
LIN1200FMWHUCWS,1089
LIN1200WMWHP,1039
LIN120WMOAKUCWS,1039
LIN600FMWHP,869
LIN600WMWHP,799
LIN750FMWHP,899
LIN750FMWHUCWS,899
LIN750WMWHUCWS,859
LIN900FMWHP,979
LIN900FMWHUCWS,979
LIN900WMWHUCWS,919
LN4WFW,1711
LN7WFW,1924
LO12MWC,545
LO60MWC,315
LO75MWC,379
LO90MWC,429
LQ544CHR,172
LQ545CHR,185
LQ546CHR,145
LR3,1249
LSW440B,299
LT45,622
LT45A,668
LTB6M019AUS,999
LTEE5A,5060
LTS45,622
LTS45A,668
LTSR,435
LU300,609
LU41B,439
LU61B,459
LU65L,549
LU65R,549
LUA100,578
LUA190,1050
LUZ,575
LV100,969
LV200,749
LV60,399
LWS42NW,2090
M6262TC,2199
MA3884VGS,999
MB91IX,1699
MC58335+53967B,529
MC58383+53967B,469
MC8289UR,579
MC91Q2A,183
MCC10CP,10
MCD2664EM,1699
MCG25TK,599
MCG30,599
MCK30,209
MCKA103X,2899
MDE18MN,2349
MDE25PN,2749
MDRAS600BTB,169.95
MDRAS600BTL,169.95
MDRZX660APB,119.95
MDRZX660APL,119.95
MDRZX770BNB,299.95
ME6124ST,299
ME6124W,269
ME6144ST,399
ME83D-1W,199
MF90,1849
MHCECL77BT,329
MHCV3,499
MHCV7D,799
MHN30PN,3899
MK2,108
ML106GGESIB3,5249
ML96GGESI3,4299
MLE20PN,7749
MLE24PD,5799
MO70U,845
MO71U,782
MOD0013C,110
MOD0016,121
MOD0019,132
MOD103L,88
MOD103R,88
MOD105,44
MOD107W,132
MOD1309L,72
MOD1309R,72
MOD5016C,154
MOD5019,176
MOD9993W,160
MS2042U,199
MS2540SR,199
MS2540SRB,149
MS3042G1,219
MS3042X1,289
MS4040SRB,199
MS4042GR,249
MS4042XRS,349
MS4082XRS,379
MSKA103X,2099
MT1510BW,204.75
MT1650BW,220.5
MTF651RHDONYX,1999
MVW18MN,2749
MW513,679
MWA122IX,549
MWKA222X,1099
MWKA424X,1949
MX5W,399
MX7W,437
MX8W,676
MZ63B,379
N100SBZ,627
N150B,853
N200S,1285
NAYA8SK5,999
NE021,33
NE0210,280
NE0212,68
NE022A,85
NE022B,140
NE022D,105
NE024,140
NE024A,105
NE025,105
NE026,85
NE026D,105
NE026S,60
NE02811,160
NE02812,150
NE02822,215
NE069,145
NE168,85
NE169,108
NIO632CPC,1999
NIOS65W,499
NNCD997S,1329
NNCF770M,809
NNDS592BQPQ,859
NNGD682SQPQ,549
NNSD351MQPQ,229
NNSD381SQPQ,259
NNSD691SQPQ,399
NNSF564WQPQ,289
NNSF574SQPQ,329
NNST253WQPQ,139
NNST342WQPQ,169
NNST641WQPQ,259
NNST671SQPQ,369
NNST780S,609
NNST785SQPQ,639
NP6221,674
NP6711,979
NP7550,189
NP7550W,189
NP8350,279
NP8740,499
NPC45G,2499
NPC60G,1699
NPC60I,2499
NPC90G,2499
NPO60,1999
NPO75,2799
NPO90,3299
NPR60,1499
NPR90,1799
NPT200,782
NPW46,1999
NRB640C,999
NRO841OX,1899
NU5W,463
NU7W,570
NW5W,463
NW7W,570
NW8W,834
OB60B77CEX3,2649
OB60BCEX3,2199
OB60DDEX4,3399
OB60N8DTX1,2449
OB60NC7CEX1,1849
OB60S3LCX2,699
OB60SC5LCX1,1199
OB60SC5LCX1EL,749
OB60SC7CEX1,1099
OB60SC7LEX1,1349
OB60SCVMX1,1199
OB60SCVMX1--A,1199
OB60SL11DEPX1,2649
OB60SL7DEX1,1449
OB60SL9DEX1,2049
OB60SLMFX4,1399
OB76DDEPX3,7599
OB76SDEPX3,5049
OB90S4LEX3,1899
OB90S9MEPX3,4349
OB90S9MEX3,3299
OC64KZ,549
OC64TZ,599
OC70TZ,679
OC95TXA,1499
OCD4W,449
OCG61XA,499
OCG62X,599
OCG90X,1299
ODW702XB,699
ODW707XB,829
ODW717XB,799
OF901XZ,2199
OF991XP,2699
OFI101XA,699
OG60XA,399
OGG64A,1199
OGG75A,1399
OGG96A,1599
OI64Z,1099
OK892ELPX,2199
OK897ELCXAUS,1899
OK999ELDPX,2699
OKES1750,3672
OLED55E6T,6999
OLED65E6T,10499
OLED65G6T,11999
OLX611LHD,389
OLX611RHD,389
OLX621LHD,429
OLX621RHD,429
OM25BLCX1,799
OM30CX,449
OM30X,299
OM36NDXB1,2699
OM4560,349
OO651XR,699
OO652XR,799
OO653X,649
OO654X,799
OO664X,899
OO686X,899
OO687X,999
OO6AX,1199
OO757X,1699
OO986X,1999
OR6W,1571
OR90SCBGFX2,2249
OR90SDBGFX2,3149
ORC97G,799
ORC98G,899
ORE300CP,268
ORO200CP,136
ORO300CP,268
ORT60X,499
ORT6WXA,249
ORU52X,499
ORU70X,699
ORW9XA,449
OS60NDTX1,2849
OSOT1753S,18
OSQ200CP,136
OSQ300CP,268
OSW100,129
OTK30MX,399
OTW150,149
OTW420B,199
OUT010CHR,172
OUT012CHR,244
P0012,147
P0018,186
P09AWN14,1370
P09AWN-14,899
P105,47
P107,138
P120RS,629
P120RW,499
P12AWN14,1540
P12AWN-14,995
P1309,101
P1641XA,1550
P18AWN14,2150
P18AWN-14,1399
P24AWN14,2659
P24AWN-14,1699
P28AWN14,3161
P28AWN-14,1975
P5018,303
P9994,349
PA110.,390
PA120,550
PA130,390
PA135,390
PA140,550
PA221,150
PA222,150
PA224,150
PA231,150
PA232,150
PA240,215
PA241,280
PA244,255
PA250,215
PA254,255
PA255,255
PA580S,365
PBH615B80A,679
PBH615B9TA,789
PC140,875
PC150,820
PC640NTX,799
PC640TGH,999
PC640TX,899
PCH615B9TA,999
PCQ715B90A,1249
PCR915B91A,1349
PCT915B9TA,1549
PE011H,395
PE011HH,560
PE012E190,435
PE02WF190,160
PE04,430
PE05,360
PFX620BFPC,799
PGA32G,1350
PGA64,1650
PGA75F-4,2490
PGA95-4,2950
PGA95F-4,2950
PGA96,2450
PH960TGH,1499
PICO2VANL241,513
PIE675N14E,2199
PIE775N14E,2399
PIL611B18E,1549
PIP264B1,1990
PIP264W,2550
PK640RGH,999
PK644DGHX,1199
PK755DGH,1499
PKE645C17A,729
PKG775N14A,1649
PKX11070,1799
PL403A,1149
PMP1001S,460
PMP1101S,485
PMP1201,435
PMP130,615
PMP140,360
PMP1501,525
PMP2401RS,385
PMP2501,435
PMP270,265
PMP290,435
PMP3101,435
PMP325,470
PMP3301S,460
PMP3401S,460
PMP355,505
PN430,925
PN600T,1350
PN610T,925
PN660,840
PN700,840
PN710,600
PN730,865
PN740,675
PN750,695
PN760,990
PP011H,305
PP011H02,460
PP012Q190,380
PP02WF190,125
PP04,360
PP05,270
PP071HO,620
PP071HR,500
PP071HS,520
PP08D2W,720
PPH616B21A,1549
PPHK,35
PPHKD,55
PPL10B,498
PPL10BU,426
PPL15B,709
PPL15B1,709
PPL15BU,641
PPL20B,709
PPL20B1,709
PPL20BU,709
PPQ716B21A,1769
PPR10B,749
PPR15B,999
PPR20B,1123
PPR35C,548
PPRH,73
PPRHC,78
PPRHS,55
PPSR,325
PPTG,85
PPTR60,110
PPTRD60,180
PQ011H,420
PQ011HH,590
PQ012U190,460
PQ02WF190,180
PQ04,415
PQ05,375
PQSHB520,1025
PR1111,3069
PR1112,3069
PR1121,1868
PR1122,1868
PR1130U,1001
PR1131,1135
PR1160U,801
PR1163U,1668
PR1180U,1067
PR1190U,1401
PR32C,649
PR45.,244
PR45A,262
PR60DSX,499
PRC1,282
PRC180,511
PRC180U,511
PRC1U,282
PRC2,511
PRC2U,511
PRI200W,391
PRI400SC,428
PRO8VAN12L85F1L,716
PRO8VAN12L85F1R,716
PRO8VAN6L82F1,394
PRO8VAN7L83F1L,492
PRO8VAN7L83F1R,492
PRO8VAN9L84F1L,528
PRO8VAN9L84F1R,528
PS90S,2099
PSA906-4,3090
PTK60X34,290
PU12071L,303
PU12071R,303
PUM601X,1050
PUM901X,1150
PVC600,440
PVC750L,475
PVC750R,475
PVC900L,569
PVC900R,569
PVS750A,3490
PW32CP,49
PW32MB,79
PX140A,3290
PZX21039R12,689
PZX21054R12,729
PZX22039R10,999
PZX260R10SBL,979
PZX260R10SBR,979
Q100U,543
Q200U,944
QN-E115SX,299
QQCS400,1695
QQHK,53
QQRH,110
QQSA1C,98
QQSA1W,155
QQSA1WA,78
QQSDH,138
QQSH35,210
QQSHA200,105
QQSHB150,203
QQSHB200,325
QQSHB2030,705
QQSR,435
QQTR22,125
QQTR35,150
QQTR70,180
QQTRD70,250
QQWB,193
QW100,509
QW40,279
QW46,299
R1101L,191
R1101R,191
R1501L,229
R1501R,229
R1751L,459
R1751R,459
R1753L,459
R1753R,459
R175MK21L,459
R175MK21R,459
R2001L,269
R2001R,269
R45T,335
R5512ACP,407
RA730CHR,382
RA770CHR,329
RA776CHR,211
RA780CHR,238
RA783CHR,461
RA784CHR,500
RA785CHR,461
RA790CHR,421
RA791CHR,369
RA803CHR,65
RA804CHR,60
RA812CHR,87
RA813CHR,77
RA870CHR,369
RA886CHR,77
RA891CHR,48
RA892CHR,32
RA893CHR,38
RA895CHR,46
RA896CHR,51
RA897CHR,18
RA898CHR,42
RAA01,83
RB60VI8,3499
RB90S64MKIW1,4149
RBA4000030,39
RBA4000045,43
RBA4000060,44
RBA4000090,51
RBA4040800,109
RBA4040810,109
RBA4090450,72
RBA4090901,114
RBA4090911,114
RBA4091101,252
RBA4110926,269
RBA4110927,269
RBA4110991,195
RBA4150101,288
RBA4157777003,422
RBA4177161,210
RBA4177999001,82
RBA4330801,66
RBA4330802,66
RBA4330820,66
RBA4330821,66
RBA4330822,66
RBA4330823,66
RBOX02,390
RBOX02F,165
RBOX04L,316
RE30C2K,499
RE60C4B2,599
RES7H,949
RF522ADUSX5,2799
RF522ADX5,2599
RF610ADUSX5,3599
RF610ADUSXQ5,3999
RFD602W,119
RFT6,825
RFT9,925
RGT9,725
RHC90IX,1199
RHS90IX,1249
RIN250EHP,4245
RINEHP32HPST265,4609
ROHS1,290
ROHS1B,321
ROVG90DU4WSL1L,839
ROVG90DU4WSL1R,839
RS6S,239
RS803CHR,65
RS804CHR,60
RS812CHR,87
RS813CHR,77
RS886CHR,77
RS891CHR,48
RS892CHR,32
RS893CHR,38
RS895CHR,46
RS896CHR,51
RS897CHR,18
RS898CHR,42
RS90A1,5499
RS9S,399
RSFR8S,299
RSS02,232
RSS03,232
RU060CHR,238
RU100CHR,421
RU110CHR,395
RU526CHR,211
RU726CHR,632
RU730CHR,553
RU764CHR,553
RU770CHR,348
RU770MB,488
RU776CHR,211
RU777CHR,251
RU780CHR,277
RU780MB,387
RU783CHR,474
RU783MB,663
RU784CHR,513
RU785CHR,474
RU785MB,663
RU790CHR,500
RU791CHR,356
RUMBLEBLOAS,499
RW464361AU,15499
RX611DUX1,2899
S200,824
S21N53N1EU,1799
S51N53X4EU,2099
SA312XA1,1290
SA35MX,550
SA37X 9923,690
SA480TX60,690
SA5502X60,1290
SA5502X90,1490
SA562X,2190
SA611XC1,1190
SA711XA1,1590
SA9010X,2890
SA9065XS1,3390
SA9852CX1,750
SA987CX2,890
SAB06,206
SAC106B,2590
SAC106N,2590
SAC106S,2590
SAC578X,2290
SAH460SS2,450
SAH491SS,650
SAI64,2390
SAI95,3490
SBIM30X1,1190
SBOOST,149
SBOX,262
SBSES7165,11824
SBSES7353,9411
SCALL8GNK,479
SCBTT405GNK,439
SCBTT785GNK,799
SCE53M05AU,1349
SCHC49DBGNS,379
SCONNECT,549
SCONNECTAMP,749
SCPMX100BGN,899
SD55,145
SDD2EMTC580,3799
SDDH1,5999
SDDH2,5499
SDS371,269
SF4120MCN,3490
SFA125,2890
SFA130,3290
SFA304X,1590
SFA309X,1790
SFA4125M,2490
SFA4130MC,3390
SFA4130VC,4390
SFA4140VCB,4490
SFA4140VCN,4490
SFA4390MX,2290
SFA4390VX,3090
SFA4395MCX,3090
SFA4395VCX,4090
SFA561,2090
SFA561X,2090
SFA579X,2390
SFA6309X,1790
SFA7125,3690
SFA7390X,3590
SFA9310XR,3590
SFA9310XR--W,3590
SFPA125,3090
SFPA130N,3590
SFPA140,4090
SFPA390X,2890
SFPA6130,3590
SFPA6309X,2390
SFPA6390X,2890
SFPA9395X,5990
SG270EVT30AS26N,7203
SG320SL2AS26N,6240
SH003CHR,139
SH007MB,165
SH020MB,198
SH2,299
SH3B,349
SH4,449
SH5,599
SH7,799
SH8,899
SHC0911C4,317
SHC1101LPC4,370
SHC1101R4,370
SHC1201R4,407
SHC520X,1590
SHC700X,1790
SHC965X,2890
SHEN1400BW,541
SHIG910X,2990
SHU701X,1190
SHW410X,2890
SHW900B,1490
SHW910X,1490
SHW920X,2590
SHWL900B,2790
SI14BM,899
SICBN3356,5151
SICBN3366,5980
SICN3314,3199
SICN3356,3896
SICN3366,4778
SID11034CB,419
SID11050CB,439
SID611CB,599
SID621CB,749
SID651CB,699
SIGN3576,4286
SIKB3550,4981
SK5,405
SKE53M05AU,1149
SKX621LHD,549
SKX621RHD,549
SL10160I4,245
SL10290ISS3,455
SL20260ISS3,418
SL22 900,1149
SL906EML850,2149
SL906LEXCEL850,1899
SLA1503S,12
SLA2253S,12
SLICVAN12L851L,784
SLICVAN12L851R,784
SLICVAN6L821,454
SLICVAN7L831L,550
SLICVAN7L831R,550
SLICVAN9L841L,596
SLICVAN9L841R,596
SLT952EM,3899
SLTC87G900,2399
SLTCEM92G900,1899
SM315EVT30AMID,5365
SM905520,749
SMDE10,700
SMDE141S,720
SMFL12,900
SMFL13,900
SMFL141,1195
SMFL151,1195
SMFL171,1195
SMI50D05AU,1349
SMQU601LS,675
SMQU601RS,675
SMQU751LS,825
SMQU751RS,825
SMS50D08AU,1099
SMS50E38AU,1049
SMS50M28AU,1299
SMS68M32AU,1499
SMS88TI03A,2399
SMU50E05AU,949
SMU88TS01A,2199
SMV63M10AU,1949
SN1011,1924
SN1012,1924
SN1020U,491
SN1021,1121
SN1022,1121
SN1030U,560
SN1050U,630
SN1051,910
SN1063U,981
SN1064,1237
SN1071,1511
SN1072,1511
SN26M231AU,1199
SN478S03TA,2399
SN56M531AU,1699
SN66M080AU,1799
SNNGC13,1499
SNX221LHD,1999
SNX221RHD,1999
SORRVAN15L872,1591
SORTER30045DUO,649
SORTERSOLO60,0
SP1B,349
SP1W,349
SP3B,499
SP3W,499
SP5G2B,749
SP5G2W,749
SPBARSB,1049
SPU68M05AU,1399
SQ100TI,70
SQBS,163
SR414MW,1099
SR600X,3490
SR610X,4190
SR620X,4490
SRA01,175
SREC0160I2,245
SRF579DLS,2499
SRF679SWLS,5799
SRF680CDLS,3199
SRF719DLS,3999
SRL525DLS,2449
SRS580DHLS,1999
SRSX11B,99
SRSX11L,99
SRSX11R,99
SRSX11W,99
SRSX55B,349
SSUBGB,999
SSX11036,259
SSX11045,349
SSX120,479
ST100SC,279
STBL1563U,926
STBL1591,1029
STH600X,790
STH903,3290
STONVAN12FL131L,978
STONVAN12FL131R,978
STONVAN12FL31L,1014
STONVAN12FL31R,1014
STONVAN12WL131L,978
STONVAN12WL131R,978
STONVAN12WL31L,1014
STONVAN12WL31R,1014
STONVAN9FL131R,765
STONVAN9FL31L,800
STONVAN9FL31R,800
STONVAN9WL131L,765
STONVAN9WL31L,800
STONVAN9WL31R,800
STSR,435
SU10F70SD,999
SUB350350UK5,899
SUBLINE400UK5,699
SUBLINE500IFK5,1299
SUBLINE700ULWK5,1099
SWB26E&SWB26C,869
SWB36E&SWB36C,1067
SWB52E&SWB52C,1430
SWB70E&SWB70C,1694
SWT5541,579
SWT6541,639
SWT7542,959
SWT9542,1149
SX578S02TA,2499
T44T42N2,2599
T54T53N2,3199
T69S86NOAU,2699
T76280AC,1599
T86280IC,1899
T948SS5,2214
TA13240,215
TA23240,145
TA5120,1249
TA60SS,299
TA6201,929
TA6300B,799
TA6301,899
TA6301B,899
TA6801,1199
TA6831,1349
TA7000,349
TA7001,629
TA7181,1249
TA7300,629
TA7301,799
TA90SS,399
TA9101,1549
TB60FDTSS5,818
TB64GWSS4,464
TBMC,83
TBSDIVC,146
TBSMC,75
TCK60,549
TCT60,699
TDA150C,1599
TD-C801H,1999
TDC8031E,1279
TD-C8031E,999
TD-C8035E,1049
TD-C901H,2599
TD-C902H,2749
TDW12X,625
TDW14I,899
TDX6SS3,1015
TFGC908X,1999
TFGT905X,1699
TGF61,499
TGWF30G,499
TGWF60G,699
TGWF61,549
TGWF90G,999
TGWF91,849
TH1040VFM,264
TH2040VTR,99
TH2050VFM,385
TH2250VF,77
TH3060LPF,165
TH3060UF,99
TH3060UFL,539
TH3060UT,110
TH3070UF,143
TH3070UT,165
TH3270UFM,627
TH32C400A,549
TH40CS610A,1299
TH50CS610A,1549
TH50CS650A,1999
TH50CX740A,2499
TH55CS610A,2099
TH55CS650A,2399
TINKB,771
TIS60B,999
TLA4503S,18
TMW228B,499
TMW228X,499
TO66PSS5,999
TO86MSS5,1235
TOC619,899
TOC909,1699
TOCS300,1365
TOHK,35
TOHKD,60
TORH,73
TOSA1C,95
TOSA1W,133
TOSA1WA,70
TOSA1WC,133
TOSDH,125
TOSH3,90
TOSH35,195
TOSHA200,90
TOSHB200,325
TOT615,649
TOTR30,85
TOTR45,95
TOTR75,120
TOTRD75,195
TOWB,170
TR0304,165
TR0604,249
TRA4110P,8690
TRH6-1,349
TRH9-1,399
TRH9CU1,699
TRTR0904,325
TSH60X,199
TSH90X,299
TSMC,83
TT5005,450
TU950TME8,2469
TUH52X,399
TUH75X,499
UA19H4000,259
UA24J4100AW,449
UA28J4100AW,499
UA32J4100AW,549
UA32J5500AW,749
UA32J5500AWXXY,699
UA40F5000,899
UA40J5100,999
UA40J5100AWXXY,899
UA40J6200AW,1299
UA40J6200WXXY,1149
UA40JU6400W,1499
UA48J6200AW,1699
UA48J6200AWXXY,1399
UA50J5100AW,1399
UA50JU6400W,2199
UA55J6200,2099
UA55J6200AWXXY,1799
UA55JS8000,3799
UA55JS9000,5999
UA55JU6400W,2699
UA60J6200AW,2899
UA60J6200AWXXY,2449
UA60JU6400W,3499
UA60JU7000WXXY,3399
UA65JS9000W,7999
UA65JS9500WXXY,7499
UA65JU6400W,4499
UA65JU7500W,4999
UA75JU6400W,7999
UD5007,960
UIG1313,3432
UIK1620,3432
UKES1752,3354
UM1170-6SP,2404
UM1170-9 S1,1769
UM1170-9SP,2530
UM3434A,590
UM34A,420
UM4545,690
UM45A,460
UN1530BW,514
UN1700BW,551
UN965MVI,2899
V110SGES3,2800
V155SGES3,3650
V190SG2E-BK,4200
V20BVCHS3,1325
V20SGEHS3,1325
V251CHR,121
V252CHR,121
V253CHR,139
V30SGES3,899
V40BVCBK,1900
V40BVCS3,1800
V40SG2ES3,2125
V40SGES3,1800
V525CHR,198
V527CHR,139
V533CHR,238
V544CHR,119
V544MB,167
V545CHR,139
V546CHR,86
V685CHR,185
V685MB,379
V717CHR,434
V726CHR,553
V726MB,947
V729CHR,658
V730CHR,290
V770CHR,209
V776CHR,100
V777CHR,86
V780CHR,172
V790CHR,263
V792CHR,238
V799CHR,1119
V819CHR,481
VA0222,1560
VA05,1080
VA802CHR,106
VA803CHR,119
VA811CHR,145
VA812CHR,165
VA885CHR,77
VA886CHR,139
VA892CHR,51
VA893CHR,51
VA895CHR,64
VA896CHR,101
VA897CHR,22
VAT400BL,299
VAT400BR,299
VAT400KRWH,379
VAT400WH,299
VC3318UNT,219
VC4918URT,169
VC6820UR,299
VC74070NCAQ,899
VCABWH1200GR,1199
VCABWH1200WH,1199
VCABWH600GR,765
VCABWH600WH,765
VCABWH800GR,869
VCABWH800WH,869
VDW6SS4,815
VG232-234AU,2399
VG264-234AU,2999
VG295-234AU,4499
VG414210AU,3999
VG424210AU,3999
VI230-134,2999
VK230-134,3999
VK7320NN,389
VK7920UH,449
VK9120UH,749
VK9820NH,599
VK9820UHA,549
VL730CHR,263
VL731CHR,277
VL732CHR,263
VMBLC1200FMLH,869
VMBLC1200FMRH,869
VMBLC1200WMLH,869
VMBLC1200WMRH,869
VMBLC1200WMRHCS,969
VMBLC1500WM,1099
VMBLC600FM,655
VMBLC600SLMFM,655
VMBLC600WM,655
VMBLC750FMLH,709
VMBLC750SLMFM,709
VMBLC750WMLH,709
VMBLC750WMRH,709
VMBLC900FMLH,765
VMBLC900FMRH,765
VMBLC900SLMFMLH,765
VMBLC900SLMFMRH,765
VMBLC900WMLH,765
VMBLC900WMLHCS,865
VMBLC900WMRH,765
VMBLC900WMRHCS,865
VP060CHR,145
VP061CHR,172
VP100CHR,263
VP101CHR,263
VP110CHR,211
VP120CHR,238
VP815CHR,263
VQFS09CLCU,1099
VQFS12CLCU,1469
VQWH12CLCU,1399
VR230134,3999
VR5906LM,499
VR5942L,449
VR5943L,449
VR63409LV,499
VR6340LV,599
VR64604LV,799
VR64702LVMP,899
VR94070NCAQ,1099
VS730CHR,202
VS731CHR,240
VS732CHR,228
VS735CHR,211
VS736CHR,698
VS770CHR,185
VS770MB,277
VS776CHR,108
VS776MB,165
VS780CHR,159
VS780MB,238
VS783CHR,317
VS783MB,474
VS785CHR,317
VS785MB,474
VS790CHR,251
VS791CHR,238
VS791MB,356
VS8402SCW,399
VS8404SCW,399
VT450,470
VV101,779
VV200,569
VV300,589
VV53,359
VV65L,489
VV65R,489
W45004SSC,487
W45100SC,519
W5873 WPS,2499
WA1068G1,1399
WA65F5S2URW-HN,599
WA8060G1,999
WACACPWHAU,200
WAE22466AU,999
WASRCPWHAU,373
WASSCPWHAU,932
WAW32640AU,2049
WAY32540AU,2349
WB1000,349
WBE4514SA-R,1599
WBE5300WAR,1699
WBE5314SAR,1999
WD1200D,779
WD12021D6,969
WD12590D6,2099
WD12595FD6,3499
WD14022D6,848
WD14023D6,1099
WD14024D6,1079
WD1402CRD6,1599
WD14071SD6,1899
WD14130FD6,1899
WD905TT905,604
WDA110,1499
WDA210,1699
WDE135WAL,2449
WDE135WAR,2449
WDG8629BAUS,1699
WDP4V,349
WF1104XAC,1999
WFE914SA,2419
WFE916SA,2979
WFE946SA,3049
WF-T6572,699
WF-T8582,749
WH7560J2,999
WH7560P2,1099
WH8060P2,1149
WH8560J2,1099
WH8560P2,1249
WHC642BA,859
WHC942BA,1079
WHE7670SA,2959
WHG640SA,579
WHG640WA,579
WHG641SA,649
WHG642SA,629
WHG643SA,809
WHG646SA,1019
WHG951SA,869
WHG952SA,859
WHG955SA,1179
WHG956SA,1209
WHI644BA,1849
WHI645BA,2439
WHS642SA,629
WHS642WA,629
WIM1000WC,319
WIM1200SC,479
WIM1200WC,379
WK70S,699
WKB1712,1740
WKG130,2599
WKH130WPS,2899
WL1068P1,1549
WL8060P1,1199
WLE525WA,1019
WLE527WA,1399
WLE535WA,979
WLE537WA,1399
WLG503WANG,1149
WLG517WA,1559
WM14W440AU,1399
WM2190-6SP,2788
WM2190SP,3040
WM5,549
WM7,799
WM700EW,1499
WMC14NRVCP,10
WMG281SB,659
WMG281SF,449
WMS281SB,519
WMS281SF,309
WRC613SB,599
WRC913SB,719
WRCG933SB,1019
WRCG943SB,1019
WRF900CS,739
WRH605IS,289
WRH605IW,289
WRH608IS,319
WRH908IS,509
WRJ600US,189
WRJ600UW,129
WRJ900US,319
WRJ900UW,259
WRM1300WC,419
WRR614SA,369
WSE6070SF,3399
WSE6100SF,2599
WSE6100WF,2149
WSE6970SF,3699
WSE7000SF,2899
WSF6606X,1009
WSF6608X,1109
WSP221110,1999
WT45W460AU,2129
WT46G400AU,1599
WTA74200AU,999
WTB2500WF,749
WTB3400WF,949
WTB86200AU,1649
WTG1432VH,2099
WTG1432WH,1999
WTG6532W,799
WTG7532W,799
WTG8532WH,1299
WTG9532VH,1199
WTG9532WH,1399
WT-H9506,899
WTM2000WC,659
WTR10686,1579
WT-R10686,1149
WT-R10806,1599
WTW85460AU,1999
WVE613S,1019
WVE613W,1019
WVE615S,1249
WVE617S,2909
WVE655S,1849
WVE665S,1539
WVE916SA,2959
WVEP615S,1999
WVEP618S,2439
WVES613S-L,1019
WVES613S-R,1019
WVES613W-L,1019
WVES613W-R,1019
WVG613SLP,1479
WVG613SNG,1479
WVG613WLP,1479
WVG613WNG,1479
WVG655SLP,2439
WVG655SNG,2439
WVH28441AU,2099
WW75H5240EW ,999
X99384MD01,2899
XADL85KE,399
XWSMA1,399
YD771CHR,198
YS730CHR,93
YS770CHR,93
YS771CHR,119
YS780CHR,93
YS791CHR,211
YV710CHR,224
YV730CHR,106
YV770CHR,106
YV771CHR,132
YV780CHR,106
YV791CHR,211
YV802CHR,61
YV803CHR,81
YV811CHR,101
YV812CHR,119
YV892CHR,26
YV893CHR,30
YV894CHR,30
YV895CHR,27
YV896CHR,58
YV901CHR,13
ZSPS50,129
