SKU,Quick Overview,Color,Warranty,Image,Energy Rating,Water Rating,Product_Dimensions,Meta Title,Meta Description,Status
237010CH,###############################################################################################################################################################################################################################################################,Chrome,,http://www.harveynormancommercial.com.au/media/catalog/product/cache/0/image/265x/9df78eab33525d08d6e5fb8d27136e95/2/3/237010ch_caroma_hr.jpg,,,W210 x D5.5 x H110mm,Caroma 237010CH Invisi II Dual Flush Pushplate |Get HaggleFree prices,Get HaggleFree quotes from your local retailers on Caroma 237010CH Invisi II Dual Flush Pushplate |Save up to 25%,visible
300NEW,<ul><li>540mm x 345mm x 175mm &#40;inside dimensions&#41;<li>NTH<li>Requires 32mm overflow plug & waste</ul>,White,1 Year,http://www.harveynormancommercial.com.au/media/catalog/product/cache/0/image/265x/9df78eab33525d08d6e5fb8d27136e95/3/0/300new_b_1_.jpg,,,,Studio Bagno 300NEW Studiobagno Enjoy Ii Under Counter Basin |Get HaggleFree prices,Get HaggleFree quotes from your local retailers on Studio Bagno 300NEW Studiobagno Enjoy Ii Under Counter Basin |Save up to 25%,visible
EDGL0011,###############################################################################################################################################################################################################################################################,White,1 year labour & 3 years replacement product,http://www.harveynormancommercial.com.au/media/catalog/product/cache/0/image/265x/9df78eab33525d08d6e5fb8d27136e95/e/d/edgl0011_edgl0010_edgr0011_edgr0010_web.jpg,,,W630 x D395 x H160mm,Studio Bagno EDGL0011 Edge 630mm Wall Basin |Get HaggleFree prices,Get HaggleFree quotes from your local retailers on Studio Bagno EDGL0011 Edge 630mm Wall Basin |Save up to 25%,visible
EDGR0011,###############################################################################################################################################################################################################################################################,White,1 year labour & 3 years replacement product,http://www.harveynormancommercial.com.au/media/catalog/product/cache/0/image/265x/9df78eab33525d08d6e5fb8d27136e95/e/d/edgl0011_edgl0010_edgr0011_edgr0010_web_2.jpg,,,W630 x D395 x H160mm,Studio Bagno EDGR0011 Edge 630mm Wall Basin |Get HaggleFree prices,Get HaggleFree quotes from your local retailers on Studio Bagno EDGR0011 Edge 630mm Wall Basin |Save up to 25%,visible
Q001,<ul><li>Includes Soft Close Seat<li>4.5&#47; 3L<li>Universal Trap<li>Back Inlet<li>Set Out 80&#45;160mm<li>W355xH825xD665mm</ul>,White,1 Year,http://www.harveynormancommercial.com.au/media/catalog/product/cache/0/image/265x/9df78eab33525d08d6e5fb8d27136e95/q/0/q001_b_1_.jpg,,,,Studio Bagno Q001 Studiobagno Q Back to Wall Suite &#45; Back Inlet |Get HaggleFree prices,Get HaggleFree quotes from your local retailers on Studio Bagno Q001 Studiobagno Q Back to Wall Suite &#45; Back Inlet |Save up to 25%,visible
SBBER440,"<ul><li>440mm x 450mm x 80mm<li>Available in&#58; 1TH &#40;SBBER441&#41;, NTH &#40;SBBER440&#41;, 3TH &#40;SBBER443&#41;<li>Requires 32mm overflow plug & waste</ul>",White,1 Year,http://www.harveynormancommercial.com.au/media/catalog/product/cache/0/image/265x/9df78eab33525d08d6e5fb8d27136e95/s/b/sbber441_sbber440_sbber443_b_1_.jpg,,,,Studio Bagno SBBER440 Studiobagno Berlin Baby Wall Hung Basin |Get HaggleFree prices,Get HaggleFree quotes from your local retailers on Studio Bagno SBBER440 Studiobagno Berlin Baby Wall Hung Basin |Save up to 25%,visible
SBBER441,<p>&bull; 1TH<br />&bull; Requires 32mm overflow plug &amp; waste</p>,White,1 Year,http://www.harveynormancommercial.com.au/media/catalog/product/cache/0/image/265x/9df78eab33525d08d6e5fb8d27136e95/s/b/sbber441_web.jpg,,,440 x 450 x 80mm,Studio Bagno SBBER441 Berlin Baby Wall Hung Basin |Get HaggleFree prices,Get HaggleFree quotes from your local retailers on Studio Bagno SBBER441 Berlin Baby Wall Hung Basin |Save up to 25%,visible
SBBER44S1,"<ul><li>440mm x 450mm x 80mm<li>Available in&#58; 1TH &#40;SBBER44S1&#41;, 3TH &#40;SBBER44S3&#41;, NTH &#40;SBBER44S0&#41;<li>Requires 32mm overflow plug & waste</ul>",White,1 Year,http://www.harveynormancommercial.com.au/media/catalog/product/cache/0/image/265x/9df78eab33525d08d6e5fb8d27136e95/s/b/sbber44s1_sbber44s3_sbber44s0_b_1_.jpg,,,,Studio Bagno SBBER44S1 Studiobagno Berlin Baby Semi Recessed Basin |Get HaggleFree prices,Get HaggleFree quotes from your local retailers on Studio Bagno SBBER44S1 Studiobagno Berlin Baby Semi Recessed Basin |Save up to 25%,visible
