SKU,Status
BDVN9200WB,2
SRSX55B,2
LU65L,2
LU65R,2
VV53,2
VV65L,2
VV65R,2
96128C,2
71474,2
20521018,2
3.1967E+14,2
7.122E+14,2
7.1606E+14,2
690CHR,2
SH003CHR,2
DINAS8S175LBK,2
237010C,2
D000003,2
DE302GB,2
DE302HB,2
DE30WGB,2
DECH60S,2
DEGH60BG,2
DEGH70BG,2
DEGH90W,2
DEGH90WF,2
DEH60S,2
BM34SX,2
DE6010MT,2
DE608M,2
DE609MP,2
DE908M,2
DE908MP,2
DEF905E,2
DEF905GW,2
DEF909GW,2
SFA304X,2
HS60CSX3,2
EBE4307SD-L,2
EBE4307SD-R,2
EBM5100SD-L,2
EBM5100SD-R,2
WSE7000SF,2
WAY32540AU,2
WD14071SD6,2
WD14130FD6,2
2.4E+34,2
40D50P,2
49LF5500,2
55LF6300,2
UA32J5500AWXXY,2
UA40J6200WXXY,2
UA60J6200AWXXY,2
UA60JU7000WXXY,2
UA65JS9500WXXY,2
300NEW,1
Q001,1
SBBER44S1,1
SBBER440,1
SBBER441,1
EDGL0011,1
EDGR0011,1
3.1967E+14,1
07666350009,1
2.4E+34,1
7.122E+14,1
7.1606E+14,1
UA65JU6400WXXY,1
237010CH,1
CL42,1
D4100900,1
CL40B,1
LU47B,1
CL50,1
VV150,1
LU62R,1
LU62L,1
601602,1
721006MC,1
Q0021,1
OL0659046,1
Q0012,1
UNL06000L1,1
UNL04700L1,1
LVQ21,1
OL0659044,1
DINAS8S175LK,1
DE909M,1
WAY32790AU,1
SFA6304X,1
SAH461SS,1
DE302GBX1,1
DE30WGBX1,1
DEP909M,1
LN5WFW,1
DEP7410,1
DE302HBX1,1
DEH60SX1,1
DEF905EX1,1
DEL606P,1
10362,1
DEGH70BGX1,1
DEFP907S,1
DEGHSL90,1
LE510000,1
WD1410SBW,1
